2457303.3994213	6.42997226394994
2457303.29769676	6.44485951758876
2457303.30869213	6.44354458022944
2457303.32168981	6.39781451544671
2457303.32269676	6.3836188222662
2457303.37974537	6.3681915145107
2457303.3409375	6.24928785966209
2457303.34685185	6.26026536526943
2457303.30268519	6.40996182385332
2457303.37515046	6.25715521268297
2457303.31070602	6.41927542009115
2457303.3597338	6.25269978203799
2457303.34489583	6.2704947439972
2457303.32371528	6.39872982159484
2457303.33894676	6.25466263983924
2457303.32472222	6.36582816272289
2457303.29568287	6.40177372461754
2457303.34190972	6.22352807904673
2457303.31275463	6.41299025132397
2457303.30667824	6.41372487590866
2457303.33167824	6.33230344017462
2457303.38574074	6.455757730006
2457303.39693287	6.38400943647944
2457303.33497685	6.28219435956238
2457303.30971065	6.42849219523473
2457303.38471065	6.41904659108314
2457303.29969907	6.44516379677073
2457303.30568287	6.41546542717822
2457303.30167824	6.40908036300841
2457303.38072917	6.38228484229024
2457303.33303241	6.28519309970448
2457303.40149306	6.40596727716537
2457303.32571759	6.36354156381562
2457303.39387731	6.4288980617421
2457303.32671296	6.35402133511617
2457303.33695602	6.25933379379746
2457303.33993056	6.24826881659657
2457303.35865741	6.28084270478074
2457303.35079861	6.26650237725118
2457303.31871528	6.42402587783291
2457303.31572917	6.4294622476384
2457303.3458912	6.25395466608423
2457303.38373843	6.41665194568529
2457303.37407407	6.28483380051683
2457303.40511574	6.43868695860298
2457303.30767361	6.42802090255368
2457303.39484954	6.41277810337301
2457303.28328704	6.40903950927382
2457303.38675926	6.44717224633242
2457303.36568287	6.31792550617917
2457303.35619213	6.24790622053454
2457303.32868056	6.35554499089988
2457303.29356481	6.33690895082894
2457303.31375	6.44691053750075
2457303.33596065	6.24058691190202
2457303.30466435	6.42981722568951
2457303.39583333	6.43360830171
2457303.36072917	6.28808630511659
2457303.36273148	6.29169031043905
2457303.33400463	6.27709355040247
2457303.27836806	6.4615384808452
2457303.39033565	6.40844967079792
2457303.28885417	6.4025142523588
2457303.35278935	6.27669615956766
2457303.29454861	6.41539392129332
2457303.34290509	6.25522067652837
2457303.30366898	6.42388907257933
2457303.33065972	6.34426587683406
2457303.3893287	6.43931016438947
2457303.35724537	6.25098409433774
2457303.37071759	6.34548146893247
2457303.36768519	6.33619197829054
2457303.33796296	6.23800295085528
2457303.31174769	6.41689602254196
2457303.27600694	6.41490539362524
2457303.28686343	6.366769105635
2457303.34877315	6.27285882191074
2457303.31474537	6.42799866793895
2457303.28046296	6.46271330167772
2457303.36173611	6.29885602945732
2457303.40305556	6.40546155073021
2457303.35179398	6.3038271057126
2457303.37310185	6.26154208226423
2457303.40732639	6.40712578321861
2457303.37872685	6.32361931060668
2457303.36969907	6.34524132124745
2457303.35421296	6.25187455545903
2457303.39836806	6.43862115688711
2457303.40040509	6.47768558566795
2457303.31672454	6.40817242836598
2457303.2915625	6.37075338318315
2457303.38271991	6.42002840073468
2457303.34981481	6.28224179920268
2457303.32068287	6.38904609667997
2457303.35519676	6.2608934177623
2457303.3006713	6.40459342878999
2457303.37671296	6.32139203019617
2457303.29256944	6.38671482309225
2457303.31773148	6.40448313112058
2457303.2878588	6.37130957207293
2457303.3877662	6.45976448887177
2457303.36372685	6.3207375146186
2457303.39130787	6.4558142200136
2457303.40628472	6.42792267448138
2457303.40407407	6.44675818552108
2457303.34390046	6.28721630149435
2457303.29008102	6.41139262662988
2457303.36668981	6.31339237000192
2457303.32967593	6.32908759689953
2457303.3196875	6.42244377993321
2457303.38173611	6.39247239262292
2457303.29869213	6.42303656598573
2457303.36869213	6.34616781462395
2457303.29670139	6.42665658292919
2457303.37769676	6.32636695732401
2457303.36471065	6.32652741859682
2457303.32768519	6.33682393648066
2457303.39243056	6.42132097116945
2457303.37209491	6.24652167834109
